0,l_stick_analog,0.3,-1,1
+0.5,a,quick_press
+2,l_stick_analog,0.3,0,-1
+0.5,zl,3
+0.5,l_stick_analog,2.35,0.55,1
+3,l_stick_analog,0.35,-0.6,1
+1,zl,1
+1,a,quick_press
+20,b,quick_press
+8,b,quick_press
+3,b,quick_press
+3,a,quick_press
+4,a,quick_press
+8,a,quick_press
