+0,a,quick_press
+1.0,b,quick_press
+1.0,a,quick_press
+1.0,b,quick_press
+1.0,a,quick_press
+1.0,b,quick_press
+0.5,b,quick_press
+0.5,l_stick_analog,1.0,0,-1
+1.0,l_stick_analog,0.8,1,0
+1.0,l_stick_analog,0.4,-0.3,1
+1.0,zl,quick_press
+4.3,b,quick_press
+0.7,b,quick_press
+1.6,b,quick_press
+1.0,b,quick_press
+1.0,b,quick_press
+1.0,b,quick_press
+3.6,a,quick_press
+1.2,l_stick_analog,1.9,0,1
+2.0,zl,0.7
+0.1,l_stick_analog,0.5,1,0
+0.7,a,quick_press
+1.0,b,quick_press
+1.0,b,quick_press
+1.0,b,quick_press
+1.0,b,quick_press
+10.8,b,quick_press
+1.0,b,quick_press
+1.0,b,quick_press
+0.3,b,quick_press
+0.3,b,quick_press
+0.3,b,quick_press
+0.3,b,quick_press
+0.3,b,quick_press
+0.3,b,quick_press
+0.3,b,quick_press
+0.3,b,quick_press
+0.3,b,quick_press
+0.3,b,quick_press
+0.3,b,quick_press
+0.3,b,quick_press
+0.3,b,quick_press
+0.3,b,quick_press
+0.3,b,quick_press
+0.3,b,quick_press
+0.3,b,quick_press
+0.3,b,quick_press
+0.3,b,quick_press
+0.3,b,quick_press
+0.3,b,quick_press
+0.3,b,quick_press
+0.3,b,quick_press
+0.3,b,quick_press
+0.3,b,quick_press
+0.3,b,quick_press
+0.3,b,quick_press
+0.3,b,quick_press
+0.3,b,quick_press
+0.3,b,quick_press
+0.3,b,quick_press
+0.3,b,quick_press
+0.3,b,quick_press
+0.3,b,quick_press
+0.3,b,quick_press
+0.3,b,quick_press
+0.3,b,quick_press
+0.3,b,quick_press
+0.3,b,quick_press
+0.3,b,quick_press
+0.3,b,quick_press
+0.3,b,quick_press
+0.3,b,quick_press
+0.3,b,quick_press
+0.3,b,quick_press
+0.3,b,quick_press
+0.3,b,quick_press
+0.3,b,quick_press
+0.3,b,quick_press
+0.3,b,quick_press
+0.3,b,quick_press
+0.3,b,quick_press
+0.3,b,quick_press
+0.3,b,quick_press
+0.3,b,quick_press
+0.3,b,quick_press
+0.3,b,quick_press
+0.3,b,quick_press
+0.3,b,quick_press
+0.3,b,quick_press
+0.3,b,quick_press
+0.3,b,quick_press
+0.3,b,quick_press
+0.3,b,quick_press
+0.3,b,quick_press
+0.3,b,quick_press
+0.3,b,quick_press
+0.3,b,quick_press